Simulations in population genetics
…
Extracting sample information

Each “sampled” individual in slendr has a symbolic name, a sampling time, and a population assignment:

ts_samples(ts)

# A tibble: 4,700 × 3
   name     time pop  
   <chr>   <dbl> <chr>
 1 pop1_1      0 pop1 
 2 pop1_2      0 pop1 
 3 pop1_3      0 pop1 
 4 pop1_4      0 pop1 
 5 pop1_5      0 pop1 
 6 pop1_6      0 pop1 
 7 pop1_7      0 pop1 
 8 pop1_8      0 pop1 
 9 pop1_9      0 pop1 
10 pop1_10     0 pop1 
# … with 4,690 more rows
# ℹ Use `print(n = ...)` to see more rows
…
